#VRML V2.0 utf8

DEF girador Group {
  children [
    Transform {
      children [
        Shape {
          appearance Appearance {
            material Material {
              ambientIntensity 0.251748
              diffuseColor 0.502714 0.295535 0.191551
              shininess 0.167568
              specularColor 0.078624 0.080397 0.048423
            }
          }
          geometry Cylinder {
            height 5
            radius 0.4
          }
        }
      ]
    }
    Transform {
      translation 0 2.5 0
      children [
        Shape {
          appearance Appearance {
            material Material {
              ambientIntensity 0.25
              diffuseColor 0.371013 0.644214 0.096552
              shininess 0.892857
              specularColor 0.087474 0.207208 0.576531
            }
          }
          geometry Sphere {
          }
        }
      ]
    }
    Transform {
      translation 0.2 2.5 0
      children [
        Shape {
          appearance Appearance {
            material Material {
              ambientIntensity 0.248407
              diffuseColor 0.114827 0.546465 0.085626
              shininess 0.091837
              specularColor 0.117347 0.063862 0.062452
            }
          }
          geometry Sphere {
          }
        }
      ]
    }
    Transform {
      translation 0.2 2.2 0
      children [
        Shape {
          appearance Appearance {
            material Material {
              ambientIntensity 0.25
              diffuseColor 0.371013 0.644214 0.096552
              shininess 0.892857
              specularColor 0.087474 0.207208 0.576531
            }
          }
          geometry Sphere {
          }
        }
      ]
    }
    Transform {
      translation -0.3 2 0
      children [
        Shape {
          appearance Appearance {
            material Material {
              ambientIntensity 0.248407
              diffuseColor 0.114827 0.546465 0.085626
              shininess 0.091837
              specularColor 0.117347 0.063862 0.062452
            }
          }
          geometry Sphere {
          }
        }
      ]
    }
    Transform {
      translation -0.5 1.9 0
      children [
        Shape {
          appearance Appearance {
            material Material {
              ambientIntensity 0.248407
              diffuseColor 0.114827 0.546465 0.085626
              shininess 0.091837
              specularColor 0.117347 0.063862 0.062452
            }
          }
          geometry Sphere {
          }
        }
      ]
    }
    Transform {
      translation 0.8 1 0
      children [
        Shape {
          appearance Appearance {
            material Material {
              ambientIntensity 0.25
              diffuseColor 0.371013 0.644214 0.096552
              shininess 0.892857
              specularColor 0.087474 0.207208 0.576531
            }
          }
          geometry Sphere {
          }
        }
      ]
    }
    Transform {
      translation 0.5 1.5 0.3
      children [
        Shape {
          appearance Appearance {
            material Material {
              ambientIntensity 0.248407
              diffuseColor 0.114827 0.546465 0.085626
              shininess 0.091837
              specularColor 0.117347 0.063862 0.062452
            }
          }
          geometry Sphere {
          }
        }
      ]
    }
    Transform {
      translation -0.5 2 -0.3
      children [
        Shape {
          appearance Appearance {
            material Material {
              ambientIntensity 0.25
              diffuseColor 0.371013 0.644214 0.096552
              shininess 0.892857
              specularColor 0.087474 0.207208 0.576531
            }
          }
          geometry Sphere {
          }
        }
      ]
    }
    Transform {
      translation 0.5 1 -0.3
      children [
        Shape {
          appearance Appearance {
            material Material {
              ambientIntensity 0.248407
              diffuseColor 0.114827 0.546465 0.085626
              shininess 0.091837
              specularColor 0.117347 0.063862 0.062452
            }
          }
          geometry Sphere {
          }
        }
      ]
    }
    Transform {
      translation -0.5 1 0
      children [
        Shape {
          appearance Appearance {
            material Material {
              ambientIntensity 0.25
              diffuseColor 0.371013 0.644214 0.096552
              shininess 0.892857
              specularColor 0.087474 0.207208 0.576531
            }
          }
          geometry Sphere {
          }
        }
      ]
    }
  ]
}