<?xml version="1.0" encoding="UTF-8"?>
<X3D profile="Immersive" version="3.0">


<Scene>
	<Group DEF="girador">

	<!-- eje-->		
		<Transform translation="0 0 0"> 
				<Shape>
					<Appearance> 
						<Material diffuseColor = "0.502714 0.295535 0.191551" 
										ambientIntensity = "0.251748"
										specularColor = "0.078624 0.080397 0.048423"
										emissiveColor = "0.000000 0.000000 0.000000"
										shininess = "0.167568"
										transparency = "0.000000"
						/>
					</Appearance>
					<Cylinder height="5" radius="0.4"/>
				</Shape>
		</Transform> 
	
	
		<Transform translation="0 2.5 0"> 
				<Shape>
					<Appearance>
						<Material diffuseColor = "0.371013 0.644214 0.096552" 
										ambientIntensity = "0.250000"
										specularColor = "0.087474 0.207208 0.576531"
										emissiveColor = "0.000000 0.000000 0.000000"
										shininess = "0.892857"
										transparency = "0.000000"
						/>
					</Appearance>
					<Sphere radius="1"/>
				</Shape>
		</Transform> 		


		<Transform translation="0.2 2.5 0"> 
				<Shape>
					<Appearance>
						<Material diffuseColor = "0.114827 0.546465 0.085626" 
										ambientIntensity = "0.248407"
										specularColor = "0.117347 0.063862 0.062452"
										emissiveColor = "0.000000 0.000000 0.000000"
										shininess = "0.091837"
										transparency = "0.000000"
						/>
					</Appearance>
					<Sphere radius="1"/>
				</Shape>
		</Transform> 

		<Transform translation="0.2 2.2 0"> 
				<Shape>
					<Appearance> 
						<Material diffuseColor = "0.371013 0.644214 0.096552" 
										ambientIntensity = "0.250000"
										specularColor = "0.087474 0.207208 0.576531"
										emissiveColor = "0.000000 0.000000 0.000000"
										shininess = "0.892857"
										transparency = "0.000000"
						/>
					</Appearance>
					<Sphere radius="1"/>
				</Shape>
		</Transform> 		
		
		

		<Transform translation="-0.3 2 0"> 
				<Shape>
					<Appearance>
						<Material diffuseColor = "0.114827 0.546465 0.085626" 
										ambientIntensity = "0.248407"
										specularColor = "0.117347 0.063862 0.062452"
										emissiveColor = "0.000000 0.000000 0.000000"
										shininess = "0.091837"
										transparency = "0.000000"
						/>
					</Appearance>
					<Sphere radius="1"/>
				</Shape>
		</Transform> 


		<Transform translation="-0.5 1.9 0"> 
				<Shape>
					<Appearance> 
						<Material diffuseColor = "0.114827 0.546465 0.085626" 
										ambientIntensity = "0.248407"
										specularColor = "0.117347 0.063862 0.062452"
										emissiveColor = "0.000000 0.000000 0.000000"
										shininess = "0.091837"
										transparency = "0.000000"
						/>
					</Appearance>
					<Sphere radius="1"/>
				</Shape>
		</Transform> 


		<Transform translation="0.8 1 0"> 
				<Shape>
					<Appearance>
						<Material diffuseColor = "0.371013 0.644214 0.096552" 
										ambientIntensity = "0.250000"
										specularColor = "0.087474 0.207208 0.576531"
										emissiveColor = "0.000000 0.000000 0.000000"
										shininess = "0.892857"
										transparency = "0.000000"
						/>
					</Appearance>
					<Sphere radius="1"/>
				</Shape>
		</Transform> 	



		<Transform translation="0.5 1.5 0.3"> 
				<Shape>
					<Appearance> 
						<Material diffuseColor = "0.114827 0.546465 0.085626" 
										ambientIntensity = "0.248407"
										specularColor = "0.117347 0.063862 0.062452"
										emissiveColor = "0.000000 0.000000 0.000000"
										shininess = "0.091837"
										transparency = "0.000000"
						/>
					</Appearance>
					<Sphere radius="1"/>
				</Shape>
		</Transform> 	

		<Transform translation="-0.5 2 -0.3"> 
				<Shape>
					<Appearance> 
						<Material diffuseColor = "0.371013 0.644214 0.096552" 
										ambientIntensity = "0.250000"
										specularColor = "0.087474 0.207208 0.576531"
										emissiveColor = "0.000000 0.000000 0.000000"
										shininess = "0.892857"
										transparency = "0.000000"
						/>
					</Appearance>
					<Sphere radius="1"/>
				</Shape>
		</Transform> 			



		<Transform translation="0.5 1 -0.3"> 
				<Shape>
					<Appearance>
						<Material diffuseColor = "0.114827 0.546465 0.085626" 
										ambientIntensity = "0.248407"
										specularColor = "0.117347 0.063862 0.062452"
										emissiveColor = "0.000000 0.000000 0.000000"
										shininess = "0.091837"
										transparency = "0.000000"
						/>
					</Appearance>
					<Sphere radius="1"/>
				</Shape>
		</Transform> 

		
		<Transform translation="-0.5 1 0"> 
			<Shape>
				<Appearance>
					<Material diffuseColor = "0.371013 0.644214 0.096552" 
									ambientIntensity = "0.250000"
									specularColor = "0.087474 0.207208 0.576531"
									emissiveColor = "0.000000 0.000000 0.000000"
									shininess = "0.892857"
									transparency = "0.000000"
					/>
				</Appearance>
				<Sphere radius="1"/>
			</Shape>
		</Transform> 
	
	</Group>
</Scene>
</X3D>



