#VRML V2.0 utf8

DEF girador Group {
  children [
    Transform {
      children [
        Shape {
          appearance Appearance {
            material Material {
              ambientIntensity 0.113208
              diffuseColor 0.697737 0.696336 0.699331
              shininess 1
              specularColor 0.227785 0.227345 0.227393
            }
          }
          geometry Cylinder {
            height 1
            radius 0.4
          }
        }
      ]
    }
    Transform {
      translation 0 0.5 0
      children [
        Shape {
          appearance Appearance {
            material Material {
              ambientIntensity 0.240838
              diffuseColor 0.876873 0.14715 0.00856
              shininess 0.076531
              specularColor 0.193878 0.029416 0.029416
            }
          }
          geometry Cylinder {
            height 0.2
            radius 2.8
          }
        }
      ]
    }
    Transform {
      translation 1.5 1 -0.5
      children [
        Shape {
          appearance Appearance {
            material Material {
              ambientIntensity 0.113208
              diffuseColor 0.697737 0.696336 0.699331
              shininess 1
              specularColor 0.227785 0.227345 0.227393
            }
          }
          geometry Cylinder {
            height 0.8
            radius 0.1
          }
        }
      ]
    }
    Transform {
      translation 1.5 1 0.5
      children [
        Shape {
          appearance Appearance {
            material Material {
              ambientIntensity 0.113208
              diffuseColor 0.697737 0.696336 0.699331
              shininess 1
              specularColor 0.227785 0.227345 0.227393
            }
          }
          geometry Cylinder {
            height 0.8
            radius 0.1
          }
        }
      ]
    }
    Transform {
      rotation 1 0 0 1.5707
      translation 1.5 1.3 0
      children [
        Shape {
          appearance Appearance {
            material Material {
              ambientIntensity 0.113208
              diffuseColor 0.697737 0.696336 0.699331
              shininess 1
              specularColor 0.227785 0.227345 0.227393
            }
          }
          geometry Cylinder {
            height 1
            radius 0.1
          }
        }
      ]
    }
    Transform {
      translation -1.5 1 -0.5
      children [
        Shape {
          appearance Appearance {
            material Material {
              ambientIntensity 0.113208
              diffuseColor 0.697737 0.696336 0.699331
              shininess 1
              specularColor 0.227785 0.227345 0.227393
            }
          }
          geometry Cylinder {
            height 0.8
            radius 0.1
          }
        }
      ]
    }
    Transform {
      translation -1.5 1 0.5
      children [
        Shape {
          appearance Appearance {
            material Material {
              ambientIntensity 0.113208
              diffuseColor 0.697737 0.696336 0.699331
              shininess 1
              specularColor 0.227785 0.227345 0.227393
            }
          }
          geometry Cylinder {
            height 0.8
            radius 0.1
          }
        }
      ]
    }
    Transform {
      rotation 1 0 0 1.5707
      translation -1.5 1.3 0
      children [
        Shape {
          appearance Appearance {
            material Material {
              ambientIntensity 0.113208
              diffuseColor 0.697737 0.696336 0.699331
              shininess 1
              specularColor 0.227785 0.227345 0.227393
            }
          }
          geometry Cylinder {
            height 1
            radius 0.1
          }
        }
      ]
    }
    Transform {
      translation -0.5 1 1.5
      children [
        Shape {
          appearance Appearance {
            material Material {
              ambientIntensity 0.113208
              diffuseColor 0.697737 0.696336 0.699331
              shininess 1
              specularColor 0.227785 0.227345 0.227393
            }
          }
          geometry Cylinder {
            height 0.8
            radius 0.1
          }
        }
      ]
    }
    Transform {
      translation 0.5 1 1.5
      children [
        Shape {
          appearance Appearance {
            material Material {
              ambientIntensity 0.113208
              diffuseColor 0.697737 0.696336 0.699331
              shininess 1
              specularColor 0.227785 0.227345 0.227393
            }
          }
          geometry Cylinder {
            height 0.8
            radius 0.1
          }
        }
      ]
    }
    Transform {
      rotation 0 0 1 1.5707
      translation 0 1.3 1.5
      children [
        Shape {
          appearance Appearance {
            material Material {
              ambientIntensity 0.113208
              diffuseColor 0.697737 0.696336 0.699331
              shininess 1
              specularColor 0.227785 0.227345 0.227393
            }
          }
          geometry Cylinder {
            height 1
            radius 0.1
          }
        }
      ]
    }
    Transform {
      translation -0.5 1 -1.5
      children [
        Shape {
          appearance Appearance {
            material Material {
              ambientIntensity 0.113208
              diffuseColor 0.697737 0.696336 0.699331
              shininess 1
              specularColor 0.227785 0.227345 0.227393
            }
          }
          geometry Cylinder {
            height 0.8
            radius 0.1
          }
        }
      ]
    }
    Transform {
      translation 0.5 1 -1.5
      children [
        Shape {
          appearance Appearance {
            material Material {
              ambientIntensity 0.113208
              diffuseColor 0.697737 0.696336 0.699331
              shininess 1
              specularColor 0.227785 0.227345 0.227393
            }
          }
          geometry Cylinder {
            height 0.8
            radius 0.1
          }
        }
      ]
    }
    Transform {
      rotation 0 0 1 1.5707
      translation 0 1.3 -1.5
      children [
        Shape {
          appearance Appearance {
            material Material {
              ambientIntensity 0.113208
              diffuseColor 0.697737 0.696336 0.699331
              shininess 1
              specularColor 0.227785 0.227345 0.227393
            }
          }
          geometry Cylinder {
            height 1
            radius 0.1
          }
        }
      ]
    }
  ]
}