<?xml version="1.0" encoding="UTF-8"?>
<X3D profile="Immersive" version="3.0">

<Scene>
	<Group DEF="Edificios3D">

		<Transform translation="16 2.5 16" >
			<Inline url="../plantillas/elementos_construccion/nivel_tipo_1.x3d"/>
		</Transform>

		<Transform translation="16 4.7 16" >
			<Inline url="../plantillas/elementos_construccion/nivel_tipo_1.x3d"/>
		</Transform>

		<Transform translation="16 6.9 16" >
			<Inline url="../plantillas/elementos_construccion/nivel_tipo_1.x3d"/>
		</Transform>

		<Transform translation="16 9.1 16" >
			<Inline url="../plantillas/elementos_construccion/nivel_tipo_1.x3d"/>
		</Transform>

		<Transform translation="16 11.3 16" >
			<Inline url="../plantillas/elementos_construccion/nivel_tipo_1.x3d"/>
		</Transform>

		<Transform translation="16 13.5 16" >
			<Inline url="../plantillas/elementos_construccion/nivel_tipo_1.x3d"/>
		</Transform>

		<Transform translation="16 15.7 16" >
			<Inline url="../plantillas/elementos_construccion/nivel_tipo_1.x3d"/>
		</Transform>

		<Transform translation="16 17.9 16" >
			<Inline url="../plantillas/elementos_construccion/nivel_tipo_1.x3d"/>
		</Transform>

		<Transform translation="16 20.1 16" >
			<Inline url="../plantillas/elementos_construccion/nivel_tipo_1.x3d"/>
		</Transform>

		<Transform translation="16 19.8 16" >
			<Inline url="../plantillas/elementos_construccion/azotea_tipo_1.x3d"/>
		</Transform>

		<Transform translation="16 0 16" >
			<Inline url="../plantillas/elementos_construccion/base_tipo_1.x3d"/>
		</Transform>
	</Group>
</Scene>
</X3D>