<?xml version="1.0" encoding="UTF-8"?>
<X3D profile="Immersive" version="3.0">


<Scene>
	<!-- Carretera -->
	
	<Group DEF="rueda">

		<Transform translation="0 0 0" rotation="1.0 0.0 0.0 1.5707"> 	
	<!-- PATA1 -->
		<Transform translation="0 0.02 0"> 
				<Shape>
					<Appearance> 
						<Material diffuseColor = "0.697737 0.696336 0.699331" 
										ambientIntensity = "0.113208"
										specularColor = "0.227785 0.227345 0.227393"
										emissiveColor = "0.000000 0.000000 0.000000"
										shininess = "1.000000"
										transparency = "0.000000"
						/>
					</Appearance>
					<Cylinder height=" 0.6" radius="0.6"/>
				</Shape>
		</Transform> 

		
		
		<Transform translation="0 0 0"> 
				<Shape>
					<Appearance> 
						<Material diffuseColor = "0.042835 0.042835 0.042835" 
										ambientIntensity = "0.208333"
										specularColor = "0.113468 0.109578 0.156265"
										emissiveColor = "0.000000 0.000000 0.000000"
										shininess = "0.063830"
										transparency = "0.000000"
						/>
					</Appearance>
					<Cylinder height=" 0.5" radius="0.8"/>
				</Shape>
		</Transform> 		


	
		<Transform translation="0.4 0 0"> 
			<Shape>
					<Appearance> 
						<Material diffuseColor = "0 0 0" />
					</Appearance>
				<Cylinder height=" 0.65" radius="0.1"/>
			</Shape>
		</Transform> 


	
		<Transform translation="0 0 0.4"> 
			<Shape>
					<Appearance>
						<Material diffuseColor = "0 0 0" />
					</Appearance>
				<Cylinder height=" 0.65" radius="0.1"/>
			</Shape>
		</Transform> 



	
		<Transform translation="0 0 -0.4"> 
			<Shape>
					<Appearance> 
						<Material diffuseColor = "0 0 0" />
					</Appearance>
				<Cylinder height=" 0.65" radius="0.1"/>
			</Shape>
		</Transform> 



	
		<Transform translation="-0.4 0 0"> 
			<Shape>
					<Appearance>
						<Material diffuseColor = "0 0 0" />
					</Appearance>
				<Cylinder height=" 0.65" radius="0.1"/>
			</Shape>
		</Transform> 		
	
		</Transform> 	
	</Group>
</Scene>
</X3D>