<?xml version="1.0" encoding="UTF-8"?>
<X3D profile="Immersive" version="3.0">

  <Scene>
	
        <Transform translation="3 1 -4" >
        		<Inline url="elementos_azoteas/tanque_agua.x3d"/>	
        </Transform>					


        <Transform translation="-3 1 2" >
        		<Inline url="elementos_azoteas/tanque_agua.x3d"/>	
        </Transform>					
			
	
  </Scene>
</X3D>
