<?xml version="1.0" encoding="UTF-8"?>
<X3D profile="Immersive" version="3.0">

  <Scene DEF="scene">
        <Transform translation="3 3 -3" >
        		<Inline url="elementos_azoteas/aire.x3d"/>	
        </Transform>		
		
        <Transform translation="-2 1 -1" >
        		<Inline url="elementos_azoteas/tanque_agua.x3d"/>	
        </Transform>				
		
        <Transform translation="-2 1 1" >
        		<Inline url="elementos_azoteas/tanque_agua.x3d"/>	
        </Transform>						
  </Scene>
</X3D>
