<?xml version="1.0" encoding="UTF-8"?>
<X3D profile="Immersive" version="3.0">

  <Scene DEF="scene">
    <Group>
      <Transform translation="0 1.3 0">
        <Shape>
          <Appearance>
            <!-- Rococo34 -->
            <Material diffuseColor="0.195355 0.197924 0.199965"
               ambientIntensity="0.250000"
               specularColor="0.430303 0.430303 0.430303"
               emissiveColor="0.000000 0.000000 0.000000"
               shininess="0.406061"
               transparency="0.000000"/>
          </Appearance>
          <Box size="11.4 2 11.5"/>
        </Shape>
      </Transform>
	  
      <Transform translation="0 1 5.7">
        <Shape DEF="puerta">
          <Appearance>
            <Material ambientIntensity="0.242424" diffuseColor="0.515625 0.315496 0.252441" shininess="0.933333" specularColor="0.533333 0.533333 0.533333"/>
          </Appearance>
          <Box size="1 1.4 0.2"/>
        </Shape>
      </Transform>
	  
      <Transform translation="0 1 -5.7">
        <Shape USE="puerta"/>
      </Transform>
	  
      <Transform rotation="0 1 0 1.5708" translation="-5.7 1 0">
        <Shape USE="puerta"/>
      </Transform>
	  
      <Transform rotation="0 1 0 1.5708" translation="5.7 1 0">
        <Shape USE="puerta"/>
      </Transform>
	  
    </Group>
  </Scene>
</X3D>