<?xml version="1.0" encoding="UTF-8"?>
<X3D profile="Immersive" version="3.0">

  <Scene DEF="scene">
    <Group>
      <Transform translation="0 1.3 -1">
        <Shape>
          <Appearance>
            <Material/>
          </Appearance>
          <Box size="14 2 11.5"/>
        </Shape>
      </Transform>
	  
      <Transform translation="0 1 4.7">
        <Shape DEF="puerta">
          <Appearance>
            <Material ambientIntensity="0.242424" diffuseColor="0.515625 0.315496 0.252441" shininess="0.933333" specularColor="0.533333 0.533333 0.533333"/>
          </Appearance>
          <Box size="1 1.4 0.2"/>
        </Shape>
      </Transform>
	  
    </Group>
  </Scene>
</X3D>