<?xml version="1.0" encoding="UTF-8"?>
<X3D profile="Immersive" version="3.0">

  <Scene DEF="scene">
    <Group>
      <Transform translation="-1 1.3 -1">
        <Shape>
          <Appearance>
            <!-- Rococo 32 -->
            <Material diffuseColor="0.430504 0.436165 0.440663"
               ambientIntensity="0.250000"
               specularColor="0.251984 0.251984 0.251984"
               emissiveColor="0.000000 0.000000 0.000000"
               shininess="0.684848"
               transparency="0.000000"/>
          </Appearance>
          <Box size="11.4 2 11.5"/>
        </Shape>
      </Transform>
	  
      <Transform translation="0 1 4.7">
        <Shape DEF="puerta">
          <Appearance>
            <Material ambientIntensity="0.242424" diffuseColor="0.515625 0.315496 0.252441" shininess="0.933333" specularColor="0.533333 0.533333 0.533333"/>
          </Appearance>
          <Box size="1 1.4 0.2"/>
        </Shape>
      </Transform>
	  
      <Transform rotation="0 1 0 1.5708" translation="4.7 1 0">
        <Shape USE="puerta"/>
      </Transform>
	  
    </Group>
  </Scene>
</X3D>