<?xml version="1.0" encoding="UTF-8"?>
<X3D profile="Immersive" version="3.0">

  <Scene DEF="scene">
    <Group>
      <Transform translation="0.75 0 0.75">
        <Shape>
          <Appearance>
            <Material ambientIntensity="0.25" diffuseColor="0.138667 0.138667 0.138667" shininess="0.153696" specularColor="0.168 0.168 0.168"/>
          </Appearance>
          <Box size="1.5 0.2 1.5"/>
        </Shape>
      </Transform>
	  
      <Transform translation="-0.85 -0.3 -0.85">
        <Shape>
          <Appearance>
            <Material DEF="rococo31" ambientIntensity="0.333332" diffuseColor="0.581818 0.579698 0.573336" shininess="0.078125" specularColor="0.095591 0.095591 0.095591"/>
          </Appearance>
          <Box size="1.3 1.2 1.3"/>
        </Shape>
      </Transform>
	  
      <Transform translation="-0.85 -0.3 0.65">
        <Shape>
          <Appearance>
            <Material USE="rococo31"/>
          </Appearance>
          <Box size="1.3 1.2 1.7"/>
        </Shape>
      </Transform>
	  
      <Transform translation="0.65 -0.3 -0.85">
        <Shape>
          <Appearance>
            <Material USE="rococo31"/>
          </Appearance>
          <Box size="1.7 1.2 1.3"/>
        </Shape>
      </Transform>
	  
      <Transform translation="0.75 0.2 -0.1">
        <Shape DEF="bordilloLargo">
          <Appearance>
            <Material DEF="rococo32" ambientIntensity="0.25" diffuseColor="0.430504 0.436165 0.440663" shininess="0.684848" specularColor="0.251984 0.251984 0.251984"/>
          </Appearance>
          <Box size="1.5 0.2 0.2"/>
        </Shape>
      </Transform>
	  
      <Transform translation="-0.1 0.2 -0.1">
        <Shape>
          <Appearance>
            <Material USE="rococo32"/>
          </Appearance>
          <Box size="0.2 0.2 0.2"/>
        </Shape>
      </Transform>
	  
      <Transform rotation="0 1 0 1.5708" translation="-0.1 0.2 0.75">
        <Shape USE="bordilloLargo"/>
      </Transform>
	  
      <Transform translation="-1.4 0.55 -1.4">
        <Shape>
          <Appearance>
            <Material USE="rococo31"/>
          </Appearance>
          <Box size="0.2 0.5 0.2"/>
        </Shape>
      </Transform>
	  
      <Transform translation="0.1 0.55 -1.4">
        <Shape>
          <Appearance>
            <Material USE="rococo31"/>
          </Appearance>
          <Box size="2.8 0.5 0.2"/>
        </Shape>
      </Transform>
	  
      <Transform translation="-1.4 0.55 0.1">
        <Shape>
          <Appearance>
            <Material USE="rococo31"/>
          </Appearance>
          <Box size="0.2 0.5 2.8"/>
        </Shape>
      </Transform>
	  
    </Group>
  </Scene>
</X3D>