#VRML V2.0 utf8
Transform {
	translation 0 0 0
	children DEF nivel Group {
		children [
			Transform {
				children Shape {
					appearance Appearance {
						material Material {
						}
					}
					geometry Box {
						size 9.5 0.5 9.5
					}
				}
			}
			Transform {
				translation 0 1.75 0
				children Shape {
					appearance Appearance {
						material Material {
						}
					}
					geometry Box {
						size 9.5 0.5 9.5
					}
				}
			}
			Transform {
				translation 0 0.9 0
				children Shape {
					appearance Appearance {
						#Glass21
						material Material {
							diffuseColor 0.566681 0.580872 0.580874
							ambientIntensity 1.001628
							specularColor 0.673937 0.457340 0.436528
							emissiveColor 0.000000 0.000000 0.000000
							shininess 0.168182
							transparency 0.351351
						}
					}
					geometry Box {
						size 9 1.4 9
					}
				}
			}
			Transform {
				translation 4.5 0.9 4.5
				children Shape {
					appearance Appearance {
						material Material {
						}
					}
					geometry Cylinder {
						height 1.4
						radius 0.25
					}
				}
			}
			Transform {
				translation -4.5 0.9 -4.5
				children Shape {
					appearance Appearance {
						material Material {
						}
					}
					geometry Cylinder {
						height 1.4
						radius 0.25
					}
				}
			}
			Transform {
				translation -4.5 0.9 4.5
				children Shape {
					appearance Appearance {
						material Material {
						}
					}
					geometry Cylinder {
						height 1.4
						radius 0.25
					}
				}
			}
			Transform {
				translation 4.5 0.9 -4.5
				children Shape {
					appearance Appearance {
						material Material {
						}
					}
					geometry Cylinder {
						height 1.4
						radius 0.25
					}
				}
			}
		]
	}
}