<?xml version="1.0" encoding="UTF-8"?>
<X3D profile="Immersive" version="3.0">

  <Scene DEF="scene">
	  	  
        <Transform translation="-3 0 0" scale="0.6 1 0.5" rotation="0.0 1.0 0.0 1.5707">
        		<Inline url="nivel_tipo_1.x3d"/>	
        </Transform>		  	  

        <Transform translation="3 0 0" scale="0.6 1 0.5" rotation="0.0 1.0 0.0 1.5707">
        		<Inline url="nivel_tipo_1.x3d"/>	
        </Transform>		  
	 	  	  
  </Scene>
</X3D>