<?xml version="1.0" encoding="UTF-8"?>
<X3D profile="Immersive" version="3.0">

  <Scene>
	<Transform scale="0.65 1 0.65">
		<Transform translation="3 0 3">
		  <Group DEF="nivel">
			<Transform>
			  <Shape>
				<Appearance>
				  <Material/>
				</Appearance>
				<Cylinder height="0.5" radius="3.5"/>
			  </Shape>
			</Transform>
			
			<Transform translation="0 1.75 0">
			  <Shape>
				<Appearance>
				  <Material/>
				</Appearance>
				<Cylinder height="0.5" radius="3.5"/>
			  </Shape>
			</Transform>
			
			<Transform translation="0 0.9 0">
			  <Shape>
				<Appearance>
				  <Material ambientIntensity="1.00163" 
								diffuseColor="0.566681 0.580872 0.580874" 
								shininess="0.168182" 
								specularColor="0.673937 0.45734 0.436528"
								transparency="0.351351"
					/>
				</Appearance>
				<Cylinder height="1.4" radius="3"/>
			  </Shape>
			</Transform>
		  </Group>
		</Transform>
		
		<Transform translation="-3 0 -3">
			<Group USE="nivel"/>
		</Transform>
		
		<Transform translation="-3 0 3">
			<Group USE="nivel"/>
		</Transform>
		
		<Transform translation="3 0 -3">
			<Group USE="nivel"/>
		</Transform>
		
	</Transform>
  </Scene>
</X3D>
