<?xml version="1.0" encoding="UTF-8"?>
<X3D profile="Immersive" version="3.0">

  <Scene DEF="scene">
    <Group>
      <Transform translation="6.5 0 6.5">
        <Inline url="junta1.x3d"/>
      </Transform>
	  
      <Transform rotation="0 1 0 3.14159" translation="-6.5 0 -6.5">
        <Inline url="junta1.x3d"/>
      </Transform>
	  
      <Transform rotation="0 1 0 1.5708" translation="6.5 0 -6.5">
        <Inline url="junta1.x3d"/>
      </Transform>
	  
      <Transform rotation="0 1 0 -1.5708" translation="-6.5 0 6.5">
        <Inline url="junta1.x3d"/>
      </Transform>
	  
      <Transform translation="0 0 6.5">
        <Inline url="via.x3d"/>
      </Transform>
	  
      <Transform rotation="0 1 0 1.5708" translation="6.5 0 0">
        <Inline url="via.x3d"/>
      </Transform>
	  
      <Transform rotation="0 1 0 3.14159" translation="0 0 -6.5">
        <Inline url="via.x3d"/>
      </Transform>
	  
      <Transform rotation="0 1 0 -1.5708" translation="-6.5 0 0">
        <Inline url="via.x3d"/>
      </Transform>
	  
     <Transform translation="-4 2.6 -4">
        <Inline url="elementos_manzanas/arbol.x3d"/>
      </Transform>
	  
	  <Transform translation="-4 2.6 4">
        <Inline url="elementos_manzanas/arbol.x3d"/>
      </Transform>
	  
	<Transform translation="4 2.6 -4">
        <Inline url="elementos_manzanas/arbol.x3d"/>
      </Transform>
	  
	<Transform translation="4 2.6 4">
        <Inline url="elementos_manzanas/arbol.x3d"/>
      </Transform>
	  
	<Transform translation="0 0.5 0" scale="0.5 0.5 0.5">
        <Inline url="elementos_manzanas/girador_parque.x3d"/>
      </Transform>
	  
	<Transform translation="3 0.5 3" scale="0.5 0.5 0.5" rotation="0 1 0 0.7854">
        <Inline url="elementos_manzanas/balancin_parque.x3d"/>
      </Transform>
	  
	<Transform translation="-3 0.5 -3" scale="0.5 0.5 0.5" rotation="0 1 0 0.7854">
        <Inline url="elementos_manzanas/balancin_parque.x3d"/>
      </Transform>
	  
	<Transform translation="-3 0.5 3" scale="0.5 0.5 0.5" rotation="0 1 0 -0.7854">
        <Inline url="elementos_manzanas/balancin_parque.x3d"/>
      </Transform>
	  
	<Transform translation="3 0.5 -3" scale="0.5 0.5 0.5" rotation="0 1 0 -0.7854">
        <Inline url="elementos_manzanas/balancin_parque.x3d"/>
      </Transform>
 

     <Transform translation="0 0.2 0">
        <Shape>
          <Appearance>
            <Material ambientIntensity="0.285714" diffuseColor="0.178971 0.538739 0.296122" shininess="0.064865" specularColor="0.086242 0.259606 0.142694"/>
          </Appearance>
          <Box size="10 0.2 10"/>
        </Shape>
      </Transform>
    </Group>
  </Scene>
</X3D>
