#VRML V2.0 utf8
Group {
	children [
		# Juntas
		#Junta inferior derecha
		Transform {
			translation 6.5 0 6.5
			children Inline {
				url "junta3.wrl"
			}
		}
		#Junta superior derecha
		Transform {
			translation 6.5 0 -6.5
			rotation 0 1 0 1.5707963267
			children Inline {
				url "junta3.wrl"
			}
		}
		#Junta inferior izquierda
		Transform {
			translation -6.5 0 6.5
			rotation 0 1 0 -1.5707963267
			children Inline {
				url "junta3.wrl"
			}
		}
		# Solar
		Transform {
			translation 0 0.2 -1.5
			children Group {
				children [
					Transform {
						translation 0 0 1.5
						children Shape {
							appearance Appearance {
								# Rococo 31
								material Material {
									diffuseColor 0.581818 0.579698 0.573336
									ambientIntensity 0.333332
									specularColor 0.095591 0.095591 0.095591
									emissiveColor 0.000000 0.000000 0.000000
									shininess 0.078125
									transparency 0.000000
								}
							}
							geometry Box {
								size 16 0.2 10
							}
						}
					}
					Transform {
						translation 0 0 8
						children Shape {
							appearance Appearance {
								# Rococo 31
								material Material {
									diffuseColor 0.581818 0.579698 0.573336
									ambientIntensity 0.333332
									specularColor 0.095591 0.095591 0.095591
									emissiveColor 0.000000 0.000000 0.000000
									shininess 0.078125
									transparency 0.000000
								}
							}
							geometry Box {
								size 10 0.2 3
							}
						}
					}
					Transform {
						translation -1.5 0 -5
						children Shape {
							appearance Appearance {
								# Rococo 31
								material Material {
									diffuseColor 0.581818 0.579698 0.573336
									ambientIntensity 0.333332
									specularColor 0.095591 0.095591 0.095591
									emissiveColor 0.000000 0.000000 0.000000
									shininess 0.078125
									transparency 0.000000
								}
							}
							geometry Box {
								size 13 0.2 3
							}
						}
					}
				]
			}
		}
	]
}