<?xml version="1.0" encoding="UTF-8"?>
<X3D profile="Immersive" version="3.0">

  <Scene DEF="scene">
    <Group>
      <Transform translation="6.5 0 6.5">
        <Inline url="junta3.x3d"/>
      </Transform>
	  
      <Transform rotation="0 1 0 1.5708" translation="6.5 0 -6.5">
        <Inline url="junta3.x3d"/>
      </Transform>
	  
      <Transform translation="0 0.2 -1.5">
        <Group>
          <Transform translation="0 0 1.5">
            <Shape>
              <Appearance>
                <Material ambientIntensity="0.333332" 
								diffuseColor="0.581818 0.579698 0.573336" 
								shininess="0.078125" 
								specularColor="0.095591 0.095591 0.095591"
				/>
              </Appearance>
              <Box size="16 0.2 10"/>
            </Shape>
          </Transform>
		  
          <Transform translation="-1.5 0 8">
            <Shape>
              <Appearance>
                <Material ambientIntensity="0.333332"
								diffuseColor="0.581818 0.579698 0.573336"
								shininess="0.078125" 
								specularColor="0.095591 0.095591 0.095591"
				/>
              </Appearance>
              <Box size="13 0.2 3"/>
            </Shape>
          </Transform>
		  
          <Transform translation="-1.5 0 -5">
            <Shape>
              <Appearance>
                <Material ambientIntensity="0.333332" 
								diffuseColor="0.581818 0.579698 0.573336" 
								shininess="0.078125" 
								specularColor="0.095591 0.095591 0.095591"
				/>
              </Appearance>
              <Box size="13 0.2 3"/>
            </Shape>
          </Transform>
		  
        </Group>
      </Transform>
    </Group>
  </Scene>
</X3D>