56 16 2.2 2.5
tipo_13 0 8 15 20 29 36 43 47 50 55 8 17 20 29 36 44 46 50 55 5 16 19 43 45 49 5 18 19 44 45 48 0
tipo_13 -1.5708 5 17 19 42 44 46 8 16 22 28 38 45 49 51 54 8 15 22 28 38 42 47 51 54 5 18 19 44 45 48 0
tipo_13 1.5708 8 18 21 31 37 45 48 52 54 5 15 19 42 43 47 5 16 19 43 45 49 8 17 21 31 37 42 46 52 54 0
tipo_13 3.14159 5 17 19 42 44 46 5 15 19 42 43 47 8 18 23 30 39 44 48 53 55 8 16 23 30 39 43 49 53 55 0
tipo_14 1.5708 15 8 10 11 12 14 16 22 23 26 27 30 34 38 40 41 8 17 20 29 36 44 46 50 55 5 16 19 43 45 49 8 17 21 31 37 42 46 52 54 0
tipo_14 -1.5708 5 17 19 42 44 46 8 16 22 28 38 45 49 51 54 15 8 9 10 11 14 17 20 21 24 25 29 33 37 40 41 8 16 23 30 39 43 49 53 55 0
tipo_14 0 8 15 20 29 36 43 47 50 55 15 8 9 10 12 13 18 21 23 25 27 31 35 39 40 41 8 15 22 28 38 42 47 51 54 5 18 19 44 45 48 0
tipo_14 3.14159 8 18 21 31 37 45 48 52 54 5 15 19 42 43 47 8 18 23 30 39 44 48 53 55 15 8 9 11 12 13 15 20 22 24 26 28 32 36 40 41 0
tipo_1 0 15 8 10 11 12 14 16 22 23 26 27 30 34 38 40 41 15 8 9 10 12 13 18 21 23 25 27 31 35 39 40 41 15 8 9 10 11 14 17 20 21 24 25 29 33 37 40 41 15 8 9 11 12 13 15 20 22 24 26 28 32 36 40 41 1
tipo_2 0 15 8 10 11 12 14 16 22 23 26 27 30 34 38 40 41 15 8 9 10 12 13 18 21 23 25 27 31 35 39 40 41 12 12 13 26 27 31 32 34 35 36 46 50 52 15 8 9 11 12 13 15 20 22 24 26 28 32 36 40 41 1
tipo_2 1.5708 15 8 10 11 12 14 16 22 23 26 27 30 34 38 40 41 12 11 14 24 26 30 32 33 34 37 48 52 53 15 8 9 10 11 14 17 20 21 24 25 29 33 37 40 41 15 8 9 11 12 13 15 20 22 24 26 28 32 36 40 41 1
tipo_2 -1.5708 15 8 10 11 12 14 16 22 23 26 27 30 34 38 40 41 15 8 9 10 12 13 18 21 23 25 27 31 35 39 40 41 15 8 9 10 11 14 17 20 21 24 25 29 33 37 40 41 12 10 14 25 27 29 33 34 35 38 47 50 51 1
tipo_2 3.14159 12 9 13 24 25 28 32 33 35 39 49 51 53 15 8 9 10 12 13 18 21 23 25 27 31 35 39 40 41 15 8 9 10 11 14 17 20 21 24 25 29 33 37 40 41 15 8 9 11 12 13 15 20 22 24 26 28 32 36 40 41 1
tipo_3 0 12 9 13 24 25 28 32 33 35 39 49 51 53 15 8 9 10 12 13 18 21 23 25 27 31 35 39 40 41 12 12 13 26 27 31 32 34 35 36 46 50 52 15 8 9 11 12 13 15 20 22 24 26 28 32 36 40 41 1
tipo_3 1.5708 15 8 10 11 12 14 16 22 23 26 27 30 34 38 40 41 12 11 14 24 26 30 32 33 34 37 48 52 53 15 8 9 10 11 14 17 20 21 24 25 29 33 37 40 41 12 10 14 25 27 29 33 34 35 38 47 50 51 1
tipo_4 0 8 15 20 29 36 43 47 50 55 15 8 9 10 12 13 18 21 23 25 27 31 35 39 40 41 8 15 22 28 38 42 47 51 54 5 18 19 44 45 48 1
tipo_4 -1.5708 5 17 19 42 44 46 8 16 22 28 38 45 49 51 54 15 8 9 10 11 14 17 20 21 24 25 29 33 37 40 41 8 16 23 30 39 43 49 53 55 1
tipo_4 1.5708 15 8 10 11 12 14 16 22 23 26 27 30 34 38 40 41 8 17 20 29 36 44 46 50 55 5 16 19 43 45 49 8 17 21 31 37 42 46 52 54 1
tipo_4 3.14159 8 18 21 31 37 45 48 52 54 5 15 19 42 43 47 8 18 23 30 39 44 48 53 55 15 8 9 11 12 13 15 20 22 24 26 28 32 36 40 41 1
tipo_5 0 5 17 19 42 44 46 5 15 19 42 43 47 5 16 19 43 45 49 5 18 19 44 45 48 1
tipo_6 0 15 8 10 11 12 14 16 22 23 26 27 30 34 38 40 41 15 8 9 10 12 13 18 21 23 25 27 31 35 39 40 41 8 15 22 28 38 42 47 51 54 8 17 21 31 37 42 46 52 54 1
tipo_6 1.5708 15 8 10 11 12 14 16 22 23 26 27 30 34 38 40 41 8 17 20 29 36 44 46 50 55 8 18 23 30 39 44 48 53 55 15 8 9 11 12 13 15 20 22 24 26 28 32 36 40 41 1
tipo_6 -1.5708 8 15 20 29 36 43 47 50 55 15 8 9 10 12 13 18 21 23 25 27 31 35 39 40 41 15 8 9 10 11 14 17 20 21 24 25 29 33 37 40 41 8 16 23 30 39 43 49 53 55 1
tipo_6 3.14159 8 18 21 31 37 45 48 52 54 8 16 22 28 38 45 49 51 54 15 8 9 10 11 14 17 20 21 24 25 29 33 37 40 41 15 8 9 11 12 13 15 20 22 24 26 28 32 36 40 41 1
tipo_7 0 15 8 10 11 12 14 16 22 23 26 27 30 34 38 40 41 15 8 9 10 12 13 18 21 23 25 27 31 35 39 40 41 12 12 13 26 27 31 32 34 35 36 46 50 52 12 10 14 25 27 29 33 34 35 38 47 50 51 1
tipo_7 1.5708 15 8 10 11 12 14 16 22 23 26 27 30 34 38 40 41 12 11 14 24 26 30 32 33 34 37 48 52 53 12 12 13 26 27 31 32 34 35 36 46 50 52 15 8 9 11 12 13 15 20 22 24 26 28 32 36 40 41 1
tipo_7 -1.5708 12 9 13 24 25 28 32 33 35 39 49 51 53 15 8 9 10 12 13 18 21 23 25 27 31 35 39 40 41 15 8 9 10 11 14 17 20 21 24 25 29 33 37 40 41 12 10 14 25 27 29 33 34 35 38 47 50 51 1
tipo_7 3.14159 12 9 13 24 25 28 32 33 35 39 49 51 53 12 11 14 24 26 30 32 33 34 37 48 52 53 15 8 9 10 11 14 17 20 21 24 25 29 33 37 40 41 15 8 9 11 12 13 15 20 22 24 26 28 32 36 40 41 1
tipo_8 0 8 15 20 29 36 43 47 50 55 15 8 9 10 12 13 18 21 23 25 27 31 35 39 40 41 12 12 13 26 27 31 32 34 35 36 46 50 52 8 16 23 30 39 43 49 53 55 1
tipo_8 1.5708 15 8 10 11 12 14 16 22 23 26 27 30 34 38 40 41 12 11 14 24 26 30 32 33 34 37 48 52 53 8 15 22 28 38 42 47 51 54 8 17 21 31 37 42 46 52 54 1
tipo_8 -1.5708 8 18 21 31 37 45 48 52 54 8 16 22 28 38 45 49 51 54 15 8 9 10 11 14 17 20 21 24 25 29 33 37 40 41 12 10 14 25 27 29 33 34 35 38 47 50 51 1
tipo_8 3.14159 12 9 13 24 25 28 32 33 35 39 49 51 53 8 17 20 29 36 44 46 50 55 8 18 23 30 39 44 48 53 55 15 8 9 11 12 13 15 20 22 24 26 28 32 36 40 41 1
tipo_9 0 12 9 13 24 25 28 32 33 35 39 49 51 53 15 8 9 10 12 13 18 21 23 25 27 31 35 39 40 41 12 12 13 26 27 31 32 34 35 36 46 50 52 12 10 14 25 27 29 33 34 35 38 47 50 51 1
tipo_9 1.5708 15 8 10 11 12 14 16 22 23 26 27 30 34 38 40 41 12 11 14 24 26 30 32 33 34 37 48 52 53 12 12 13 26 27 31 32 34 35 36 46 50 52 12 10 14 25 27 29 33 34 35 38 47 50 51 1
tipo_9 -1.5708 12 9 13 24 25 28 32 33 35 39 49 51 53 12 11 14 24 26 30 32 33 34 37 48 52 53 15 8 9 10 11 14 17 20 21 24 25 29 33 37 40 41 12 10 14 25 27 29 33 34 35 38 47 50 51 1
tipo_9 3.14159 12 9 13 24 25 28 32 33 35 39 49 51 53 12 11 14 24 26 30 32 33 34 37 48 52 53 12 12 13 26 27 31 32 34 35 36 46 50 52 15 8 9 11 12 13 15 20 22 24 26 28 32 36 40 41 1
tipo_10 0 12 9 13 24 25 28 32 33 35 39 49 51 53 15 8 9 10 12 13 18 21 23 25 27 31 35 39 40 41 8 15 22 28 38 42 47 51 54 8 17 21 31 37 42 46 52 54 1
tipo_10 1.5708 15 8 10 11 12 14 16 22 23 26 27 30 34 38 40 41 8 17 20 29 36 44 46 50 55 8 18 23 30 39 44 48 53 55 12 10 14 25 27 29 33 34 35 38 47 50 51 1
tipo_10 -1.5708 8 15 20 29 36 43 47 50 55 12 11 14 24 26 30 32 33 34 37 48 52 53 15 8 9 10 11 14 17 20 21 24 25 29 33 37 40 41 8 16 23 30 39 43 49 53 55 1
tipo_10 3.14159 8 18 21 31 37 45 48 52 54 8 16 22 28 38 45 49 51 54 12 12 13 26 27 31 32 34 35 36 46 50 52 15 8 9 11 12 13 15 20 22 24 26 28 32 36 40 41 1
tipo_11 0 15 8 10 11 12 14 16 22 23 26 27 30 34 38 40 41 15 8 9 10 12 13 18 21 23 25 27 31 35 39 40 41 15 8 9 10 11 14 17 20 21 24 25 29 33 37 40 41 15 8 9 11 12 13 15 20 22 24 26 28 32 36 40 41 0
tipo_12 0 15 8 10 11 12 14 16 22 23 26 27 30 34 38 40 41 15 8 9 10 12 13 18 21 23 25 27 31 35 39 40 41 15 8 9 10 11 14 17 20 21 24 25 29 33 37 40 41 15 8 9 11 12 13 15 20 22 24 26 28 32 36 40 41 0
tipo_15 0 8 15 20 29 36 43 47 50 55 8 17 20 29 36 44 46 50 55 5 16 19 43 45 49 5 18 19 44 45 48 1
tipo_15 -1.5708 5 17 19 42 44 46 8 16 22 28 38 45 49 51 54 8 15 22 28 38 42 47 51 54 5 18 19 44 45 48 1
tipo_15 1.5708 8 18 21 31 37 45 48 52 54 5 15 19 42 43 47 5 16 19 43 45 49 8 17 21 31 37 42 46 52 54 1
tipo_15 3.14159 5 17 19 42 44 46 5 15 19 42 43 47 8 18 23 30 39 44 48 53 55 8 16 23 30 39 43 49 53 55 1
tipo_16 0 12 9 13 24 25 28 32 33 35 39 49 51 53 8 17 20 29 36 44 46 50 55 5 16 19 43 45 49 8 17 21 31 37 42 46 52 54 1
tipo_16 -1.5708 8 15 20 29 36 43 47 50 55 12 11 14 24 26 30 32 33 34 37 48 52 53 8 15 22 28 38 42 47 51 54 5 18 19 44 45 48 1
tipo_16 1.5708 8 18 21 31 37 45 48 52 54 5 15 19 42 43 47 8 18 23 30 39 44 48 53 55 12 10 14 25 27 29 33 34 35 38 47 50 51 1
tipo_16 3.14159 5 17 19 42 44 46 8 16 22 28 38 45 49 51 54 12 12 13 26 27 31 32 34 35 36 46 50 52 8 16 23 30 39 43 49 53 55 1
tipo_17 0 12 9 13 24 25 28 32 33 35 39 49 51 53 12 11 14 24 26 30 32 33 34 37 48 52 53 8 15 22 28 38 42 47 51 54 8 17 21 31 37 42 46 52 54 1
tipo_17 -1.5708 8 15 20 29 36 43 47 50 55 12 11 14 24 26 30 32 33 34 37 48 52 53 12 12 13 26 27 31 32 34 35 36 46 50 52 8 16 23 30 39 43 49 53 55 1
tipo_17 1.5708 12 9 13 24 25 28 32 33 35 39 49 51 53 8 17 20 29 36 44 46 50 55 8 18 23 30 39 44 48 53 55 12 10 14 25 27 29 33 34 35 38 47 50 51 1
tipo_17 3.14159 8 18 21 31 37 45 48 52 54 8 16 22 28 38 45 49 51 54 12 12 13 26 27 31 32 34 35 36 46 50 52 12 10 14 25 27 29 33 34 35 38 47 50 51 1
tipo_18 0 8 15 20 29 36 43 47 50 55 8 17 20 29 36 44 46 50 55 8 18 23 30 39 44 48 53 55 8 16 23 30 39 43 49 53 55 1
tipo_18 1.5708 8 18 21 31 37 45 48 52 54 8 16 22 28 38 45 49 51 54 8 15 22 28 38 42 47 51 54 8 17 21 31 37 42 46 52 54 1
