<?xml version="1.0" encoding="UTF-8"?>
<X3D profile="Immersive" version="3.0">

<Scene>
	<Group DEF="Edificios3D">

		<Transform translation="22 0.5 20" >
			<Inline url="../plantillas/decoracion/farola.x3d"/>
		</Transform>

		<Transform translation="38 0.5 20" >
			<Inline url="../plantillas/decoracion/farola.x3d"/>
		</Transform>

		<Transform translation="54 0.5 20" >
			<Inline url="../plantillas/decoracion/farola.x3d"/>
		</Transform>

		<Transform translation="54 0.4 12" rotation="0.0 1.0 0.0 1.5707">
			<Inline url="../plantillas/decoracion/papelera.x3d"/>
		</Transform>

		<Transform translation="70 0.5 20" >
			<Inline url="../plantillas/decoracion/farola.x3d"/>
		</Transform>

		<Transform translation="86 0.5 20" >
			<Inline url="../plantillas/decoracion/farola.x3d"/>
		</Transform>

		<Transform translation="86 0.4 12" rotation="0.0 1.0 0.0 1.5707">
			<Inline url="../plantillas/decoracion/papelera.x3d"/>
		</Transform>

		<Transform translation="102 0.5 20" >
			<Inline url="../plantillas/decoracion/farola.x3d"/>
		</Transform>

		<Transform translation="102 0.4 12" rotation="0.0 1.0 0.0 1.5707">
			<Inline url="../plantillas/decoracion/papelera.x3d"/>
		</Transform>

		<Transform translation="118 0.5 20" >
			<Inline url="../plantillas/decoracion/farola.x3d"/>
		</Transform>

		<Transform translation="118 0.4 12" rotation="0.0 1.0 0.0 1.5707">
			<Inline url="../plantillas/decoracion/papelera.x3d"/>
		</Transform>

		<Transform translation="134 0.5 20" >
			<Inline url="../plantillas/decoracion/farola.x3d"/>
		</Transform>

		<Transform translation="150 0.5 20" >
			<Inline url="../plantillas/decoracion/farola.x3d"/>
		</Transform>

		<Transform translation="150 0.4 12" rotation="0.0 1.0 0.0 1.5707">
			<Inline url="../plantillas/decoracion/papelera.x3d"/>
		</Transform>

		<Transform translation="166 0.5 20" >
			<Inline url="../plantillas/decoracion/farola.x3d"/>
		</Transform>

		<Transform translation="22 0.5 36" >
			<Inline url="../plantillas/decoracion/farola.x3d"/>
		</Transform>

		<Transform translation="22 0.4 28" rotation="0.0 1.0 0.0 1.5707">
			<Inline url="../plantillas/decoracion/papelera.x3d"/>
		</Transform>

		<Transform translation="38 0.5 36" >
			<Inline url="../plantillas/decoracion/farola.x3d"/>
		</Transform>

		<Transform translation="38 0.4 28" rotation="0.0 1.0 0.0 1.5707">
			<Inline url="../plantillas/decoracion/papelera.x3d"/>
		</Transform>

		<Transform translation="54 0.5 36" >
			<Inline url="../plantillas/decoracion/farola.x3d"/>
		</Transform>

		<Transform translation="54 0.4 28" rotation="0.0 1.0 0.0 1.5707">
			<Inline url="../plantillas/decoracion/papelera.x3d"/>
		</Transform>

		<Transform translation="70 0.5 36" >
			<Inline url="../plantillas/decoracion/farola.x3d"/>
		</Transform>

		<Transform translation="86 0.5 36" >
			<Inline url="../plantillas/decoracion/farola.x3d"/>
		</Transform>

		<Transform translation="102 0.5 36" >
			<Inline url="../plantillas/decoracion/farola.x3d"/>
		</Transform>

		<Transform translation="102 0.4 28" rotation="0.0 1.0 0.0 1.5707">
			<Inline url="../plantillas/decoracion/papelera.x3d"/>
		</Transform>

		<Transform translation="118 0.5 36" >
			<Inline url="../plantillas/decoracion/farola.x3d"/>
		</Transform>

		<Transform translation="134 0.5 36" >
			<Inline url="../plantillas/decoracion/farola.x3d"/>
		</Transform>

		<Transform translation="150 0.5 36" >
			<Inline url="../plantillas/decoracion/farola.x3d"/>
		</Transform>

		<Transform translation="166 0.5 36" >
			<Inline url="../plantillas/decoracion/farola.x3d"/>
		</Transform>

		<Transform translation="166 0.4 28" rotation="0.0 1.0 0.0 1.5707">
			<Inline url="../plantillas/decoracion/papelera.x3d"/>
		</Transform>

		<Transform translation="22 0.5 52" >
			<Inline url="../plantillas/decoracion/farola.x3d"/>
		</Transform>

		<Transform translation="22 0.4 44" rotation="0.0 1.0 0.0 1.5707">
			<Inline url="../plantillas/decoracion/papelera.x3d"/>
		</Transform>

		<Transform translation="38 0.5 52" >
			<Inline url="../plantillas/decoracion/farola.x3d"/>
		</Transform>

		<Transform translation="54 0.5 52" >
			<Inline url="../plantillas/decoracion/farola.x3d"/>
		</Transform>

		<Transform translation="54 0.4 44" rotation="0.0 1.0 0.0 1.5707">
			<Inline url="../plantillas/decoracion/papelera.x3d"/>
		</Transform>

		<Transform translation="70 0.5 52" >
			<Inline url="../plantillas/decoracion/farola.x3d"/>
		</Transform>

		<Transform translation="86 0.5 52" >
			<Inline url="../plantillas/decoracion/farola.x3d"/>
		</Transform>

		<Transform translation="102 0.5 52" >
			<Inline url="../plantillas/decoracion/farola.x3d"/>
		</Transform>

		<Transform translation="118 0.5 52" >
			<Inline url="../plantillas/decoracion/farola.x3d"/>
		</Transform>

		<Transform translation="118 0.4 44" rotation="0.0 1.0 0.0 1.5707">
			<Inline url="../plantillas/decoracion/papelera.x3d"/>
		</Transform>

		<Transform translation="134 0.5 52" >
			<Inline url="../plantillas/decoracion/farola.x3d"/>
		</Transform>

		<Transform translation="134 0.4 44" rotation="0.0 1.0 0.0 1.5707">
			<Inline url="../plantillas/decoracion/papelera.x3d"/>
		</Transform>

		<Transform translation="150 0.5 52" >
			<Inline url="../plantillas/decoracion/farola.x3d"/>
		</Transform>

		<Transform translation="166 0.5 52" >
			<Inline url="../plantillas/decoracion/farola.x3d"/>
		</Transform>

		<Transform translation="22 0.5 68" >
			<Inline url="../plantillas/decoracion/farola.x3d"/>
		</Transform>

		<Transform translation="38 0.5 68" >
			<Inline url="../plantillas/decoracion/farola.x3d"/>
		</Transform>

		<Transform translation="54 0.5 68" >
			<Inline url="../plantillas/decoracion/farola.x3d"/>
		</Transform>

		<Transform translation="70 0.5 68" >
			<Inline url="../plantillas/decoracion/farola.x3d"/>
		</Transform>

		<Transform translation="86 0.5 68" >
			<Inline url="../plantillas/decoracion/farola.x3d"/>
		</Transform>

		<Transform translation="86 0.4 60" rotation="0.0 1.0 0.0 1.5707">
			<Inline url="../plantillas/decoracion/papelera.x3d"/>
		</Transform>

		<Transform translation="102 0.5 68" >
			<Inline url="../plantillas/decoracion/farola.x3d"/>
		</Transform>

		<Transform translation="102 0.4 60" rotation="0.0 1.0 0.0 1.5707">
			<Inline url="../plantillas/decoracion/papelera.x3d"/>
		</Transform>

		<Transform translation="118 0.5 68" >
			<Inline url="../plantillas/decoracion/farola.x3d"/>
		</Transform>

		<Transform translation="118 0.4 60" rotation="0.0 1.0 0.0 1.5707">
			<Inline url="../plantillas/decoracion/papelera.x3d"/>
		</Transform>

		<Transform translation="134 0.5 68" >
			<Inline url="../plantillas/decoracion/farola.x3d"/>
		</Transform>

		<Transform translation="134 0.4 60" rotation="0.0 1.0 0.0 1.5707">
			<Inline url="../plantillas/decoracion/papelera.x3d"/>
		</Transform>

		<Transform translation="150 0.5 68" >
			<Inline url="../plantillas/decoracion/farola.x3d"/>
		</Transform>

		<Transform translation="166 0.5 68" >
			<Inline url="../plantillas/decoracion/farola.x3d"/>
		</Transform>

		<Transform translation="166 0.4 60" rotation="0.0 1.0 0.0 1.5707">
			<Inline url="../plantillas/decoracion/papelera.x3d"/>
		</Transform>

		<Transform translation="22 0.5 84" >
			<Inline url="../plantillas/decoracion/farola.x3d"/>
		</Transform>

		<Transform translation="22 0.4 76" rotation="0.0 1.0 0.0 1.5707">
			<Inline url="../plantillas/decoracion/papelera.x3d"/>
		</Transform>

		<Transform translation="38 0.5 84" >
			<Inline url="../plantillas/decoracion/farola.x3d"/>
		</Transform>

		<Transform translation="38 0.4 76" rotation="0.0 1.0 0.0 1.5707">
			<Inline url="../plantillas/decoracion/papelera.x3d"/>
		</Transform>

		<Transform translation="54 0.5 84" >
			<Inline url="../plantillas/decoracion/farola.x3d"/>
		</Transform>

		<Transform translation="70 0.5 84" >
			<Inline url="../plantillas/decoracion/farola.x3d"/>
		</Transform>

		<Transform translation="86 0.5 84" >
			<Inline url="../plantillas/decoracion/farola.x3d"/>
		</Transform>

		<Transform translation="102 0.5 84" >
			<Inline url="../plantillas/decoracion/farola.x3d"/>
		</Transform>

		<Transform translation="102 0.4 76" rotation="0.0 1.0 0.0 1.5707">
			<Inline url="../plantillas/decoracion/papelera.x3d"/>
		</Transform>

		<Transform translation="118 0.5 84" >
			<Inline url="../plantillas/decoracion/farola.x3d"/>
		</Transform>

		<Transform translation="134 0.5 84" >
			<Inline url="../plantillas/decoracion/farola.x3d"/>
		</Transform>

		<Transform translation="150 0.5 84" >
			<Inline url="../plantillas/decoracion/farola.x3d"/>
		</Transform>

		<Transform translation="166 0.5 84" >
			<Inline url="../plantillas/decoracion/farola.x3d"/>
		</Transform>

		<Transform translation="166 0.4 76" rotation="0.0 1.0 0.0 1.5707">
			<Inline url="../plantillas/decoracion/papelera.x3d"/>
		</Transform>

		<Transform translation="22 0.5 100" >
			<Inline url="../plantillas/decoracion/farola.x3d"/>
		</Transform>

		<Transform translation="38 0.5 100" >
			<Inline url="../plantillas/decoracion/farola.x3d"/>
		</Transform>

		<Transform translation="38 0.4 92" rotation="0.0 1.0 0.0 1.5707">
			<Inline url="../plantillas/decoracion/papelera.x3d"/>
		</Transform>

		<Transform translation="54 0.5 100" >
			<Inline url="../plantillas/decoracion/farola.x3d"/>
		</Transform>

		<Transform translation="54 0.4 92" rotation="0.0 1.0 0.0 1.5707">
			<Inline url="../plantillas/decoracion/papelera.x3d"/>
		</Transform>

		<Transform translation="70 0.5 100" >
			<Inline url="../plantillas/decoracion/farola.x3d"/>
		</Transform>

		<Transform translation="86 0.5 100" >
			<Inline url="../plantillas/decoracion/farola.x3d"/>
		</Transform>

		<Transform translation="102 0.5 100" >
			<Inline url="../plantillas/decoracion/farola.x3d"/>
		</Transform>

		<Transform translation="102 0.4 92" rotation="0.0 1.0 0.0 1.5707">
			<Inline url="../plantillas/decoracion/papelera.x3d"/>
		</Transform>

		<Transform translation="118 0.5 100" >
			<Inline url="../plantillas/decoracion/farola.x3d"/>
		</Transform>

		<Transform translation="118 0.4 92" rotation="0.0 1.0 0.0 1.5707">
			<Inline url="../plantillas/decoracion/papelera.x3d"/>
		</Transform>

		<Transform translation="134 0.5 100" >
			<Inline url="../plantillas/decoracion/farola.x3d"/>
		</Transform>

		<Transform translation="134 0.4 92" rotation="0.0 1.0 0.0 1.5707">
			<Inline url="../plantillas/decoracion/papelera.x3d"/>
		</Transform>

		<Transform translation="150 0.5 100" >
			<Inline url="../plantillas/decoracion/farola.x3d"/>
		</Transform>

		<Transform translation="150 0.4 92" rotation="0.0 1.0 0.0 1.5707">
			<Inline url="../plantillas/decoracion/papelera.x3d"/>
		</Transform>

		<Transform translation="166 0.5 100" >
			<Inline url="../plantillas/decoracion/farola.x3d"/>
		</Transform>

		<Transform translation="166 0.4 92" rotation="0.0 1.0 0.0 1.5707">
			<Inline url="../plantillas/decoracion/papelera.x3d"/>
		</Transform>

		<Transform translation="22 0.5 116" >
			<Inline url="../plantillas/decoracion/farola.x3d"/>
		</Transform>

		<Transform translation="22 0.4 108" rotation="0.0 1.0 0.0 1.5707">
			<Inline url="../plantillas/decoracion/papelera.x3d"/>
		</Transform>

		<Transform translation="38 0.5 116" >
			<Inline url="../plantillas/decoracion/farola.x3d"/>
		</Transform>

		<Transform translation="54 0.5 116" >
			<Inline url="../plantillas/decoracion/farola.x3d"/>
		</Transform>

		<Transform translation="70 0.5 116" >
			<Inline url="../plantillas/decoracion/farola.x3d"/>
		</Transform>

		<Transform translation="86 0.5 116" >
			<Inline url="../plantillas/decoracion/farola.x3d"/>
		</Transform>

		<Transform translation="102 0.5 116" >
			<Inline url="../plantillas/decoracion/farola.x3d"/>
		</Transform>

		<Transform translation="118 0.5 116" >
			<Inline url="../plantillas/decoracion/farola.x3d"/>
		</Transform>

		<Transform translation="134 0.5 116" >
			<Inline url="../plantillas/decoracion/farola.x3d"/>
		</Transform>

		<Transform translation="134 0.4 108" rotation="0.0 1.0 0.0 1.5707">
			<Inline url="../plantillas/decoracion/papelera.x3d"/>
		</Transform>

		<Transform translation="150 0.5 116" >
			<Inline url="../plantillas/decoracion/farola.x3d"/>
		</Transform>

		<Transform translation="150 0.4 108" rotation="0.0 1.0 0.0 1.5707">
			<Inline url="../plantillas/decoracion/papelera.x3d"/>
		</Transform>

		<Transform translation="166 0.5 116" >
			<Inline url="../plantillas/decoracion/farola.x3d"/>
		</Transform>

		<Transform translation="166 0.4 108" rotation="0.0 1.0 0.0 1.5707">
			<Inline url="../plantillas/decoracion/papelera.x3d"/>
		</Transform>

		<Transform translation="22 0.5 132" >
			<Inline url="../plantillas/decoracion/farola.x3d"/>
		</Transform>

		<Transform translation="38 0.5 132" >
			<Inline url="../plantillas/decoracion/farola.x3d"/>
		</Transform>

		<Transform translation="38 0.4 124" rotation="0.0 1.0 0.0 1.5707">
			<Inline url="../plantillas/decoracion/papelera.x3d"/>
		</Transform>

		<Transform translation="54 0.5 132" >
			<Inline url="../plantillas/decoracion/farola.x3d"/>
		</Transform>

		<Transform translation="54 0.4 124" rotation="0.0 1.0 0.0 1.5707">
			<Inline url="../plantillas/decoracion/papelera.x3d"/>
		</Transform>

		<Transform translation="70 0.5 132" >
			<Inline url="../plantillas/decoracion/farola.x3d"/>
		</Transform>

		<Transform translation="70 0.4 124" rotation="0.0 1.0 0.0 1.5707">
			<Inline url="../plantillas/decoracion/papelera.x3d"/>
		</Transform>

		<Transform translation="86 0.5 132" >
			<Inline url="../plantillas/decoracion/farola.x3d"/>
		</Transform>

		<Transform translation="86 0.4 124" rotation="0.0 1.0 0.0 1.5707">
			<Inline url="../plantillas/decoracion/papelera.x3d"/>
		</Transform>

		<Transform translation="102 0.5 132" >
			<Inline url="../plantillas/decoracion/farola.x3d"/>
		</Transform>

		<Transform translation="118 0.5 132" >
			<Inline url="../plantillas/decoracion/farola.x3d"/>
		</Transform>

		<Transform translation="134 0.5 132" >
			<Inline url="../plantillas/decoracion/farola.x3d"/>
		</Transform>

		<Transform translation="150 0.5 132" >
			<Inline url="../plantillas/decoracion/farola.x3d"/>
		</Transform>

		<Transform translation="166 0.5 132" >
			<Inline url="../plantillas/decoracion/farola.x3d"/>
		</Transform>

		<Transform translation="22 0.5 148" >
			<Inline url="../plantillas/decoracion/farola.x3d"/>
		</Transform>

		<Transform translation="22 0.4 140" rotation="0.0 1.0 0.0 1.5707">
			<Inline url="../plantillas/decoracion/papelera.x3d"/>
		</Transform>

		<Transform translation="38 0.5 148" >
			<Inline url="../plantillas/decoracion/farola.x3d"/>
		</Transform>

		<Transform translation="38 0.4 140" rotation="0.0 1.0 0.0 1.5707">
			<Inline url="../plantillas/decoracion/papelera.x3d"/>
		</Transform>

		<Transform translation="54 0.5 148" >
			<Inline url="../plantillas/decoracion/farola.x3d"/>
		</Transform>

		<Transform translation="70 0.5 148" >
			<Inline url="../plantillas/decoracion/farola.x3d"/>
		</Transform>

		<Transform translation="70 0.4 140" rotation="0.0 1.0 0.0 1.5707">
			<Inline url="../plantillas/decoracion/papelera.x3d"/>
		</Transform>

		<Transform translation="86 0.5 148" >
			<Inline url="../plantillas/decoracion/farola.x3d"/>
		</Transform>

		<Transform translation="102 0.5 148" >
			<Inline url="../plantillas/decoracion/farola.x3d"/>
		</Transform>

		<Transform translation="118 0.5 148" >
			<Inline url="../plantillas/decoracion/farola.x3d"/>
		</Transform>

		<Transform translation="118 0.4 140" rotation="0.0 1.0 0.0 1.5707">
			<Inline url="../plantillas/decoracion/papelera.x3d"/>
		</Transform>

		<Transform translation="134 0.5 148" >
			<Inline url="../plantillas/decoracion/farola.x3d"/>
		</Transform>

		<Transform translation="134 0.4 140" rotation="0.0 1.0 0.0 1.5707">
			<Inline url="../plantillas/decoracion/papelera.x3d"/>
		</Transform>

		<Transform translation="150 0.5 148" >
			<Inline url="../plantillas/decoracion/farola.x3d"/>
		</Transform>

		<Transform translation="150 0.4 140" rotation="0.0 1.0 0.0 1.5707">
			<Inline url="../plantillas/decoracion/papelera.x3d"/>
		</Transform>

		<Transform translation="166 0.5 148" >
			<Inline url="../plantillas/decoracion/farola.x3d"/>
		</Transform>

		<Transform translation="22 0.5 164" >
			<Inline url="../plantillas/decoracion/farola.x3d"/>
		</Transform>

		<Transform translation="38 0.5 164" >
			<Inline url="../plantillas/decoracion/farola.x3d"/>
		</Transform>

		<Transform translation="38 0.4 156" rotation="0.0 1.0 0.0 1.5707">
			<Inline url="../plantillas/decoracion/papelera.x3d"/>
		</Transform>

		<Transform translation="54 0.5 164" >
			<Inline url="../plantillas/decoracion/farola.x3d"/>
		</Transform>

		<Transform translation="70 0.5 164" >
			<Inline url="../plantillas/decoracion/farola.x3d"/>
		</Transform>

		<Transform translation="70 0.4 156" rotation="0.0 1.0 0.0 1.5707">
			<Inline url="../plantillas/decoracion/papelera.x3d"/>
		</Transform>

		<Transform translation="86 0.5 164" >
			<Inline url="../plantillas/decoracion/farola.x3d"/>
		</Transform>

		<Transform translation="102 0.5 164" >
			<Inline url="../plantillas/decoracion/farola.x3d"/>
		</Transform>

		<Transform translation="102 0.4 156" rotation="0.0 1.0 0.0 1.5707">
			<Inline url="../plantillas/decoracion/papelera.x3d"/>
		</Transform>

		<Transform translation="118 0.5 164" >
			<Inline url="../plantillas/decoracion/farola.x3d"/>
		</Transform>

		<Transform translation="118 0.4 156" rotation="0.0 1.0 0.0 1.5707">
			<Inline url="../plantillas/decoracion/papelera.x3d"/>
		</Transform>

		<Transform translation="134 0.5 164" >
			<Inline url="../plantillas/decoracion/farola.x3d"/>
		</Transform>

		<Transform translation="134 0.4 156" rotation="0.0 1.0 0.0 1.5707">
			<Inline url="../plantillas/decoracion/papelera.x3d"/>
		</Transform>

		<Transform translation="150 0.5 164" >
			<Inline url="../plantillas/decoracion/farola.x3d"/>
		</Transform>

		<Transform translation="166 0.5 164" >
			<Inline url="../plantillas/decoracion/farola.x3d"/>
		</Transform>

		<Transform translation="96 49 96">
			<Inline url="../plantillas/edificios/Zeppelin.x3d"/>
		</Transform>
	</Group>
</Scene>
</X3D>